{"_etag":"836a0771e21b14ec745004557a513836","_items":[{"class":"Bird","potentialPoint":2,"code":"S4_Bird_Power_2","craftable":false,"weight":0,"tags":["single_attack"],"energy":0,"hp":-6,"damage":9,"shield":0,"heal":0,"hpPct":0,"damagePct":0,"shieldPct":0,"healPct":0,"item":{"id":"ecard_bird_3010_s4","displayOrder":10430101,"category":"Special","rarity":"Epic","description":"(Alter Single Attacks)\nATK +9. Max HP -6.","name":"Bird's Charm of Power II","tokenStandard":"","tokenAddress":"","tokenId":"","imageUrl":"https://storage.googleapis.com/origin-production/assets/item/ecard_bird_5001.png"},"season":{"id":5,"name":"Season 4"},"_etag":"8483969691b13b41330a30a29c9dd918"},{"class":"Aquatic","potentialPoint":4,"code":"aquatic_4002_s0_nft","craftable":true,"weight":100,"tags":[],"energy":0,"hp":0,"damage":0,"shield":0,"heal":0,"hpPct":0,"damagePct":-10,"shieldPct":-10,"healPct":-10,"item":{"id":"ecard_aquatic_4002_s0_nft","displayOrder":20640020,"category":"Special","rarity":"Mystic","description":"(Enhance any card)\nAdd <Retain>. Card's base stat -10%.","name":"Sticky Octopus","tokenStandard":"ERC1155","tokenAddress":"0x814A9C959a3Ef6CA44b5e2349e3bBa9845393947","tokenId":"2000007","imageUrl":"https://storage.googleapis.com/origin-production/assets/item/ecard_aquatic_5004.png"},"season":{"id":1,"name":"Season 0"},"_etag":"8483969691b13b41330a30a29c9dd918"},{"class":"Aquatic","potentialPoint":4,"code":"S5NFT_Aquatic_SelfBubble","craftable":true,"weight":100,"tags":[],"energy":0,"hp":0,"damage":0,"shield":0,"heal":0,"hpPct":0,"damagePct":0,"shieldPct":0,"healPct":0,"item":{"id":"ecard_aquatic_2013_s5_nft","displayOrder":10620130,"category":"Special","rarity":"Rare","description":"(Alter Any)\n<Degrade>. +2 {Bubble}.","name":"Aquatic's Energy Drink S","tokenStandard":"ERC1155","tokenAddress":"0x814A9C959a3Ef6CA44b5e2349e3bBa9845393947","tokenId":"2005056","imageUrl":"https://storage.googleapis.com/origin-production/assets/item/ecard_aquatic_5003.png"},"season":{"id":6,"name":"Season 5"},"_etag":"8483969691b13b41330a30a29c9dd918"},{"class":"Beast","potentialPoint":2,"code":"S2_Beast_Focus_2","craftable":false,"weight":0,"tags":["multihit","aoe_attack"],"energy":0,"hp":-6,"damage":5,"shield":0,"heal":0,"hpPct":0,"damagePct":0,"shieldPct":0,"healPct":0,"item":{"id":"ecard_beast_3011_s2","displayOrder":10230111,"category":"Special","rarity":"Epic","description":"(Alter Multihit & <AoE> Attack cards)\nATK + 5. The card's owner's max HP -6.","name":"Beast's Charm of Focus II","tokenStandard":"","tokenAddress":"","tokenId":"","imageUrl":"https://storage.googleapis.com/origin-production/assets/item/ecard_beast_3011.png"},"season":{"id":3,"name":"Season 2"},"_etag":"8483969691b13b41330a30a29c9dd918"},{"class":"Neutral","potentialPoint":5,"code":"S5NonDec_Neutral_RocketStamp","craftable":false,"weight":0,"tags":["single_attack"],"energy":0,"hp":0,"damage":0,"shield":0,"heal":0,"hpPct":0,"damagePct":0,"shieldPct":0,"healPct":0,"item":{"id":"ecard_neutral_4010_s5_nondec","displayOrder":10140099,"category":"Special","rarity":"Mystic","description":"(Alter Single Attacks)\nChange target to any Enemy or ally. Deal -15% DMG.","name":"Rocket Stamp","tokenStandard":"","tokenAddress":"","tokenId":"","imageUrl":"https://storage.googleapis.com/origin-production/assets/item/ecard_neutral_5001.png"},"season":{"id":6,"name":"Season 5"},"_etag":"8483969691b13b41330a30a29c9dd918"},{"class":"Neutral","potentialPoint":1,"code":"S2_Neutral_Faith_2","craftable":true,"weight":100,"tags":["heal"],"energy":0,"hp":0,"damage":0,"shield":0,"heal":6,"hpPct":0,"damagePct":0,"shieldPct":0,"healPct":0,"item":{"id":"ecard_neutral_2014_s2","displayOrder":10120141,"category":"Special","rarity":"Rare","description":"(Alter Heal cards)\nHeal Stat +6","name":"Charm of Faith II","tokenStandard":"","tokenAddress":"","tokenId":"","imageUrl":"https://storage.googleapis.com/origin-production/assets/item/ecard_neutral_2005.png"},"season":{"id":3,"name":"Season 2"},"_etag":"8483969691b13b41330a30a29c9dd918"},{"class":"Beast","potentialPoint":3,"code":"","craftable":true,"weight":100,"tags":[],"energy":0,"hp":18,"damage":0,"shield":0,"heal":0,"hpPct":0,"damagePct":0,"shieldPct":0,"healPct":0,"item":{"id":"ecard_beast_3001_s1_nft","displayOrder":20230010,"category":"Special","rarity":"Epic","description":"(Enhance any card)\nAxie's max HP +18","name":"Beast's Charm of Vitality II","tokenStandard":"ERC1155","tokenAddress":"0x814A9C959a3Ef6CA44b5e2349e3bBa9845393947","tokenId":"2001011","imageUrl":"https://storage.googleapis.com/origin-production/assets/item/ecard_beast_5002.png"},"season":{"id":2,"name":"Season 1"},"_etag":"8483969691b13b41330a30a29c9dd918"},{"class":"Beast","potentialPoint":5,"code":"beast_4003_s0","craftable":false,"weight":0,"tags":["attack"],"energy":0,"hp":0,"damage":0,"shield":0,"heal":0,"hpPct":0,"damagePct":0,"shieldPct":0,"healPct":0,"item":{"id":"ecard_beast_4003_s0","displayOrder":20240031,"category":"Special","rarity":"Mystic","description":"(Enhance an Attack card)\nAttacks appy {Bleed} for 4 turns.","name":"Hidden Razor","tokenStandard":"","tokenAddress":"","tokenId":"","imageUrl":"https://storage.googleapis.com/origin-production/assets/item/ecard_beast_5005.png"},"season":{"id":1,"name":"Season 0"},"_etag":"8483969691b13b41330a30a29c9dd918"},{"class":"Neutral","potentialPoint":5,"code":"neutral_5003_s0_nft","craftable":true,"weight":100,"tags":[],"energy":0,"hp":0,"damage":0,"shield":0,"heal":0,"hpPct":0,"damagePct":-10,"shieldPct":-10,"healPct":-10,"item":{"id":"ecard_neutral_5003_s0_nft","displayOrder":20150030,"category":"Special","rarity":"Mystic","description":"(Enhance any card)\nAdd <Retain>. Card's base stat -10%.","name":"Scotch Tape","tokenStandard":"ERC1155","tokenAddress":"0x814A9C959a3Ef6CA44b5e2349e3bBa9845393947","tokenId":"2000048","imageUrl":"https://storage.googleapis.com/origin-production/assets/item/ecard_neutral_5004.png"},"season":{"id":1,"name":"Season 0"},"_etag":"8483969691b13b41330a30a29c9dd918"},{"class":"Neutral","potentialPoint":1,"code":"S2_Neutral_Focus_1","craftable":true,"weight":100,"tags":["multihit","aoe_attack"],"energy":0,"hp":0,"damage":1,"shield":0,"heal":0,"hpPct":0,"damagePct":0,"shieldPct":0,"healPct":0,"item":{"id":"ecard_neutral_1012_s2","displayOrder":10110121,"category":"Special","rarity":"Common","description":"(Alter Multihit & <AoE> Attack cards)\nATK +1","name":"Charm of Focus I","tokenStandard":"","tokenAddress":"","tokenId":"","imageUrl":"https://storage.googleapis.com/origin-production/assets/item/ecard_neutral_1003.png"},"season":{"id":3,"name":"Season 2"},"_etag":"8483969691b13b41330a30a29c9dd918"},{"class":"Plant","potentialPoint":3,"code":"Plant_Vitality_2","craftable":false,"weight":0,"tags":[],"energy":0,"hp":20,"damage":0,"shield":0,"heal":0,"hpPct":0,"damagePct":-10,"shieldPct":-10,"healPct":-10,"item":{"id":"ecard_plant_3010_s1","displayOrder":10530101,"category":"Special","rarity":"Epic","description":"(Alter any card)\nThe card's owner's max HP +20. Its base stat -10%.","name":"Plant's Charm of Vitality II (S1.5)","tokenStandard":"","tokenAddress":"","tokenId":"","imageUrl":"https://storage.googleapis.com/origin-production/assets/item/ecard_plant_3010.png"},"season":{"id":2,"name":"Season 1"},"_etag":"8483969691b13b41330a30a29c9dd918"},{"class":"Bird","potentialPoint":5,"code":"S2_Bird_Weak","craftable":false,"weight":0,"tags":["attack"],"energy":0,"hp":0,"damage":0,"shield":0,"heal":0,"hpPct":0,"damagePct":0,"shieldPct":0,"healPct":0,"item":{"id":"ecard_bird_4010_s2","displayOrder":10440101,"category":"Special","rarity":"Mystic","description":"(Alter Attack cards)\nThe card applies {Weak} for 2 turns to its targets.\nIt also deals 10% bonus DMG against enemies with {Weak}.","name":"Flamingo Hammer","tokenStandard":"","tokenAddress":"","tokenId":"","imageUrl":"https://storage.googleapis.com/origin-production/assets/item/ecard_bird_5005.png"},"season":{"id":3,"name":"Season 2"},"_etag":"8483969691b13b41330a30a29c9dd918"},{"class":"Reptile","potentialPoint":2,"code":"Reptile_Vitality_1","craftable":false,"weight":0,"tags":[],"energy":0,"hp":10,"damage":0,"shield":0,"heal":0,"hpPct":0,"damagePct":0,"shieldPct":0,"healPct":0,"item":{"id":"ecard_reptile_2011_s1","displayOrder":10720111,"category":"Special","rarity":"Rare","description":"(Alter any card)\nThe card's owner's max HP +10.","name":"Reptile's Charm of Vitality I (S1.5)","tokenStandard":"","tokenAddress":"","tokenId":"","imageUrl":"https://storage.googleapis.com/origin-production/assets/item/ecard_reptile_4001.png"},"season":{"id":2,"name":"Season 1"},"_etag":"8483969691b13b41330a30a29c9dd918"},{"class":"Neutral","potentialPoint":1,"code":"S5NonDec_Neutral_Faith_2","craftable":false,"weight":0,"tags":["heal"],"energy":0,"hp":0,"damage":0,"shield":0,"heal":6,"hpPct":0,"damagePct":0,"shieldPct":0,"healPct":0,"item":{"id":"ecard_neutral_2014_s5_nondec","displayOrder":10120139,"category":"Special","rarity":"Rare","description":"(Alter Heals)\nHeal +6.","name":"Charm of Faith II","tokenStandard":"","tokenAddress":"","tokenId":"","imageUrl":"https://storage.googleapis.com/origin-production/assets/item/ecard_neutral_2005.png"},"season":{"id":6,"name":"Season 5"},"_etag":"8483969691b13b41330a30a29c9dd918"},{"class":"Neutral","potentialPoint":5,"code":"S3_Neutral_Retain","craftable":true,"weight":100,"tags":[],"energy":0,"hp":0,"damage":0,"shield":0,"heal":0,"hpPct":0,"damagePct":0,"shieldPct":0,"healPct":0,"item":{"id":"ecard_neutral_3012_s3","displayOrder":10130121,"category":"Special","rarity":"Epic","description":"(Alter any card)\nAdd <Retain>.","name":"Scotch Tape","tokenStandard":"","tokenAddress":"","tokenId":"","imageUrl":"https://storage.googleapis.com/origin-production/assets/item/ecard_neutral_5004.png"},"season":{"id":4,"name":"Season 3"},"_etag":"8483969691b13b41330a30a29c9dd918"},{"class":"Reptile","potentialPoint":3,"code":"","craftable":true,"weight":100,"tags":[],"energy":0,"hp":18,"damage":0,"shield":0,"heal":0,"hpPct":0,"damagePct":0,"shieldPct":0,"healPct":0,"item":{"id":"ecard_reptile_3001_s1_nft","displayOrder":20730010,"category":"Special","rarity":"Epic","description":"(Enhance any card)\nAxie's Max HP +18","name":"Reptile's Charm of Vitality II","tokenStandard":"ERC1155","tokenAddress":"0x814A9C959a3Ef6CA44b5e2349e3bBa9845393947","tokenId":"2001061","imageUrl":"https://storage.googleapis.com/origin-production/assets/item/ecard_reptile_5001.png"},"season":{"id":2,"name":"Season 1"},"_etag":"8483969691b13b41330a30a29c9dd918"},{"class":"Neutral","potentialPoint":2,"code":"neutral_2003","craftable":true,"weight":100,"tags":["multihit"],"energy":0,"hp":0,"damage":2,"shield":0,"heal":0,"hpPct":0,"damagePct":0,"shieldPct":0,"healPct":0,"item":{"id":"ecard_neutral_2003","displayOrder":20120030,"category":"Special","rarity":"Rare","description":"(Enhance Multihit Attack card)\nATK +2","name":"Charm of Focus II","tokenStandard":"","tokenAddress":"","tokenId":"","imageUrl":"https://storage.googleapis.com/origin-production/assets/item/ecard_neutral_2003.png"},"season":{"id":0,"name":"Season Alpha"},"_etag":"8483969691b13b41330a30a29c9dd918"},{"class":"Reptile","potentialPoint":2,"code":"reptile_2002_s0","craftable":false,"weight":0,"tags":["shield"],"energy":0,"hp":0,"damage":0,"shield":6,"heal":0,"hpPct":0,"damagePct":0,"shieldPct":0,"healPct":0,"item":{"id":"ecard_reptile_2002_s0","displayOrder":20720021,"category":"Special","rarity":"Rare","description":"(Enhance any Shielding card)\nShield Stat +6","name":"Reptile's Charm of Endurance I","tokenStandard":"","tokenAddress":"","tokenId":"","imageUrl":"https://storage.googleapis.com/origin-production/assets/item/ecard_reptile_4002.png"},"season":{"id":1,"name":"Season 0"},"_etag":"8483969691b13b41330a30a29c9dd918"},{"class":"Bird","potentialPoint":1,"code":"S2NFT_Bird_Power_1","craftable":true,"weight":100,"tags":["single_attack"],"energy":0,"hp":0,"damage":5,"shield":0,"heal":0,"hpPct":0,"damagePct":0,"shieldPct":0,"healPct":0,"item":{"id":"ecard_bird_2011_s2_nft","displayOrder":10420110,"category":"Special","rarity":"Rare","description":"(Alter Single Attack cards)\nATK +5","name":"Bird's Charm of Power I","tokenStandard":"ERC1155","tokenAddress":"0x814A9C959a3Ef6CA44b5e2349e3bBa9845393947","tokenId":"2002031","imageUrl":"https://storage.googleapis.com/origin-production/assets/item/ecard_bird_4001.png"},"season":{"id":3,"name":"Season 2"},"_etag":"8483969691b13b41330a30a29c9dd918"},{"class":"Reptile","potentialPoint":2,"code":"S4NonDec_Reptile_Endurance_2","craftable":false,"weight":0,"tags":["shield"],"energy":0,"hp":-6,"damage":0,"shield":13,"heal":0,"hpPct":0,"damagePct":0,"shieldPct":0,"healPct":0,"item":{"id":"ecard_reptile_3011_s4_nondec","displayOrder":10730112,"category":"Special","rarity":"Epic","description":"(Alter Shields)\nShield +13. Max HP -6.","name":"Reptile's Charm of \u001dEndurance II","tokenStandard":"","tokenAddress":"","tokenId":"","imageUrl":"https://storage.googleapis.com/origin-production/assets/item/ecard_reptile_3011.png"},"season":{"id":5,"name":"Season 4"},"_etag":"8483969691b13b41330a30a29c9dd918"}],"_metadata":{"limit":20,"offset":0,"total":1309,"hasNext":true}}